EESchema Schematic File Version 4
EELAYER 30 0
EELAYER END
$Descr USLedger 17000 11000
encoding utf-8
Sheet 1 1
Title "Wraith USB Hub"
Date "2020-01-13"
Rev "1"
Comp ""
Comment1 ""
Comment2 ""
Comment3 ""
Comment4 ""
$EndDescr
$Comp
L power:GND #PWR017
U 1 1 5E3AD477
P 6050 6750
F 0 "#PWR017" H 6050 6500 50  0001 C CNN
F 1 "GND" H 6055 6577 50  0000 C CNN
F 2 "" H 6050 6750 50  0001 C CNN
F 3 "" H 6050 6750 50  0001 C CNN
	1    6050 6750
	1    0    0    -1  
$EndComp
NoConn ~ 7350 5350
NoConn ~ 7350 5450
NoConn ~ 7350 5550
NoConn ~ 7350 5650
NoConn ~ 7350 5750
NoConn ~ 7350 5850
NoConn ~ 7350 5950
NoConn ~ 7350 6050
NoConn ~ 7350 6150
Connection ~ 15000 3250
Wire Wire Line
	15450 3250 15450 3300
Wire Wire Line
	15000 3250 15450 3250
Connection ~ 15000 3650
Wire Wire Line
	15450 3650 15450 3600
Wire Wire Line
	15000 3650 15450 3650
Connection ~ 15050 4750
Wire Wire Line
	15500 4750 15500 4800
Wire Wire Line
	15050 4750 15500 4750
Connection ~ 15050 5150
Wire Wire Line
	15500 5150 15500 5100
Wire Wire Line
	15050 5150 15500 5150
Wire Wire Line
	15550 6700 15550 6650
Connection ~ 15100 6300
Wire Wire Line
	15550 6300 15550 6350
Wire Wire Line
	15100 6300 15550 6300
$Comp
L Device:C C4
U 1 1 5E290FA8
P 15450 3450
F 0 "C4" H 15565 3496 50  0000 L CNN
F 1 "0.001uF" H 15565 3405 50  0000 L CNN
F 2 "" H 15488 3300 50  0001 C CNN
F 3 "~" H 15450 3450 50  0001 C CNN
	1    15450 3450
	1    0    0    -1  
$EndComp
Wire Wire Line
	14650 3250 15000 3250
Wire Wire Line
	1600 10150 2100 10150
Connection ~ 2100 10150
Connection ~ 1600 10150
Wire Wire Line
	1600 10100 1600 10150
Wire Wire Line
	1150 10150 1600 10150
Wire Wire Line
	14300 6450 14300 6550
Wire Wire Line
	14250 4900 14250 5000
Wire Wire Line
	14200 3400 14200 3500
Connection ~ 14650 6700
Connection ~ 14750 6300
Wire Wire Line
	14650 6300 14750 6300
Wire Wire Line
	14650 6450 14650 6300
Wire Wire Line
	14400 6450 14650 6450
Connection ~ 14750 6700
Wire Wire Line
	14650 6700 14750 6700
Wire Wire Line
	14650 6550 14650 6700
Wire Wire Line
	14300 6550 14650 6550
Wire Wire Line
	14750 6300 15100 6300
Wire Wire Line
	14750 6700 15100 6700
Wire Wire Line
	15100 6350 15100 6300
Wire Wire Line
	14750 6350 14750 6300
$Comp
L power:GND #PWR015
U 1 1 5E29A262
P 14650 6700
F 0 "#PWR015" H 14650 6450 50  0001 C CNN
F 1 "GND" H 14655 6527 50  0000 C CNN
F 2 "" H 14650 6700 50  0001 C CNN
F 3 "" H 14650 6700 50  0001 C CNN
	1    14650 6700
	1    0    0    -1  
$EndComp
Wire Wire Line
	14750 6650 14750 6700
$Comp
L Device:R R3
U 1 1 5E29A25B
P 14750 6500
F 0 "R3" H 14820 6546 50  0000 L CNN
F 1 "1MR" H 14820 6455 50  0000 L CNN
F 2 "" V 14680 6500 50  0001 C CNN
F 3 "~" H 14750 6500 50  0001 C CNN
	1    14750 6500
	1    0    0    -1  
$EndComp
Wire Wire Line
	15100 6650 15100 6700
$Comp
L Device:C C11
U 1 1 5E29A252
P 15550 6500
F 0 "C11" H 15665 6546 50  0000 L CNN
F 1 "0.001uF" H 15665 6455 50  0000 L CNN
F 2 "" H 15588 6350 50  0001 C CNN
F 3 "~" H 15550 6500 50  0001 C CNN
	1    15550 6500
	1    0    0    -1  
$EndComp
$Comp
L Device:C C10
U 1 1 5E29A24C
P 15100 6500
F 0 "C10" H 15215 6546 50  0000 L CNN
F 1 "0.1uF" H 15215 6455 50  0000 L CNN
F 2 "" H 15138 6350 50  0001 C CNN
F 3 "~" H 15100 6500 50  0001 C CNN
	1    15100 6500
	1    0    0    -1  
$EndComp
Connection ~ 14600 5150
Connection ~ 14700 4750
Wire Wire Line
	14600 4750 14700 4750
Wire Wire Line
	14600 4900 14600 4750
Wire Wire Line
	14350 4900 14600 4900
Connection ~ 14700 5150
Wire Wire Line
	14600 5150 14700 5150
Wire Wire Line
	14600 5000 14600 5150
Wire Wire Line
	14250 5000 14600 5000
Wire Wire Line
	14700 4750 15050 4750
Wire Wire Line
	14700 5150 15050 5150
Wire Wire Line
	15050 4800 15050 4750
Wire Wire Line
	14700 4800 14700 4750
$Comp
L power:GND #PWR012
U 1 1 5E29569D
P 14600 5150
F 0 "#PWR012" H 14600 4900 50  0001 C CNN
F 1 "GND" H 14605 4977 50  0000 C CNN
F 2 "" H 14600 5150 50  0001 C CNN
F 3 "" H 14600 5150 50  0001 C CNN
	1    14600 5150
	1    0    0    -1  
$EndComp
Wire Wire Line
	14700 5100 14700 5150
$Comp
L Device:R R2
U 1 1 5E295696
P 14700 4950
F 0 "R2" H 14770 4996 50  0000 L CNN
F 1 "1MR" H 14770 4905 50  0000 L CNN
F 2 "" V 14630 4950 50  0001 C CNN
F 3 "~" H 14700 4950 50  0001 C CNN
	1    14700 4950
	1    0    0    -1  
$EndComp
Wire Wire Line
	15050 5100 15050 5150
$Comp
L Device:C C8
U 1 1 5E29568D
P 15500 4950
F 0 "C8" H 15615 4996 50  0000 L CNN
F 1 "0.001uF" H 15615 4905 50  0000 L CNN
F 2 "" H 15538 4800 50  0001 C CNN
F 3 "~" H 15500 4950 50  0001 C CNN
	1    15500 4950
	1    0    0    -1  
$EndComp
$Comp
L Device:C C7
U 1 1 5E295687
P 15050 4950
F 0 "C7" H 15165 4996 50  0000 L CNN
F 1 "0.1uF" H 15165 4905 50  0000 L CNN
F 2 "" H 15088 4800 50  0001 C CNN
F 3 "~" H 15050 4950 50  0001 C CNN
	1    15050 4950
	1    0    0    -1  
$EndComp
Connection ~ 14550 3650
Connection ~ 14650 3250
Wire Wire Line
	14550 3250 14650 3250
Wire Wire Line
	14550 3400 14550 3250
Wire Wire Line
	14300 3400 14550 3400
Connection ~ 14650 3650
Wire Wire Line
	14550 3650 14650 3650
Wire Wire Line
	14550 3500 14550 3650
Wire Wire Line
	14200 3500 14550 3500
Wire Wire Line
	14650 3650 15000 3650
Wire Wire Line
	15000 3300 15000 3250
Wire Wire Line
	14650 3300 14650 3250
$Comp
L power:GND #PWR09
U 1 1 5E290FB8
P 14550 3650
F 0 "#PWR09" H 14550 3400 50  0001 C CNN
F 1 "GND" H 14555 3477 50  0000 C CNN
F 2 "" H 14550 3650 50  0001 C CNN
F 3 "" H 14550 3650 50  0001 C CNN
	1    14550 3650
	1    0    0    -1  
$EndComp
Wire Wire Line
	14650 3600 14650 3650
$Comp
L Device:R R1
U 1 1 5E290FB1
P 14650 3450
F 0 "R1" H 14720 3496 50  0000 L CNN
F 1 "1MR" H 14720 3405 50  0000 L CNN
F 2 "" V 14580 3450 50  0001 C CNN
F 3 "~" H 14650 3450 50  0001 C CNN
	1    14650 3450
	1    0    0    -1  
$EndComp
Wire Wire Line
	15000 3600 15000 3650
$Comp
L Device:C C3
U 1 1 5E290FA2
P 15000 3450
F 0 "C3" H 15115 3496 50  0000 L CNN
F 1 "0.1uF" H 15115 3405 50  0000 L CNN
F 2 "" H 15038 3300 50  0001 C CNN
F 3 "~" H 15000 3450 50  0001 C CNN
	1    15000 3450
	1    0    0    -1  
$EndComp
$Comp
L Connector:USB_A J4
U 1 1 5E1EA2B3
P 14300 6050
F 0 "J4" H 14070 6039 50  0000 R CNN
F 1 "USB_A" H 14070 5948 50  0000 R CNN
F 2 "" H 14450 6000 50  0001 C CNN
F 3 " ~" H 14450 6000 50  0001 C CNN
	1    14300 6050
	-1   0    0    -1  
$EndComp
$Comp
L Connector:USB_A J3
U 1 1 5E1E8B0C
P 14250 4500
F 0 "J3" H 14020 4489 50  0000 R CNN
F 1 "USB_A" H 14020 4398 50  0000 R CNN
F 2 "" H 14400 4450 50  0001 C CNN
F 3 " ~" H 14400 4450 50  0001 C CNN
	1    14250 4500
	-1   0    0    -1  
$EndComp
$Comp
L Connector:USB_A J2
U 1 1 5E1E7D1E
P 14200 3000
F 0 "J2" H 13970 2989 50  0000 R CNN
F 1 "USB_A" H 13970 2898 50  0000 R CNN
F 2 "" H 14350 2950 50  0001 C CNN
F 3 " ~" H 14350 2950 50  0001 C CNN
	1    14200 3000
	-1   0    0    -1  
$EndComp
Connection ~ 1150 10150
Wire Wire Line
	800  10150 1150 10150
Wire Wire Line
	800  10100 800  10150
Wire Wire Line
	800  9700 800  9800
Wire Wire Line
	1150 9700 800  9700
$Comp
L Device:R R12
U 1 1 5E1E0380
P 800 9950
F 0 "R12" H 870 9996 50  0000 L CNN
F 1 "1MR" H 870 9905 50  0000 L CNN
F 2 "" V 730 9950 50  0001 C CNN
F 3 "~" H 800 9950 50  0001 C CNN
	1    800  9950
	-1   0    0    1   
$EndComp
Wire Wire Line
	1150 9700 1150 9800
Connection ~ 1150 9700
Wire Wire Line
	1600 9700 1600 9800
Wire Wire Line
	1150 9700 1600 9700
Wire Wire Line
	1150 10100 1150 10150
Wire Wire Line
	2100 10150 2100 10200
$Comp
L Device:C C14
U 1 1 5E1D9F56
P 1600 9950
F 0 "C14" H 1715 9996 50  0000 L CNN
F 1 "0.001uF" H 1715 9905 50  0000 L CNN
F 2 "" H 1638 9800 50  0001 C CNN
F 3 "~" H 1600 9950 50  0001 C CNN
	1    1600 9950
	1    0    0    -1  
$EndComp
$Comp
L Device:C C13
U 1 1 5E1D88E1
P 1150 9950
F 0 "C13" H 1265 9996 50  0000 L CNN
F 1 "0.1uF" H 1265 9905 50  0000 L CNN
F 2 "" H 1188 9800 50  0001 C CNN
F 3 "~" H 1150 9950 50  0001 C CNN
	1    1150 9950
	1    0    0    -1  
$EndComp
$Comp
L power:GND #PWR020
U 1 1 5E1D77AF
P 2100 10150
F 0 "#PWR020" H 2100 9900 50  0001 C CNN
F 1 "GND" H 2105 9977 50  0000 C CNN
F 2 "" H 2100 10150 50  0001 C CNN
F 3 "" H 2100 10150 50  0001 C CNN
	1    2100 10150
	1    0    0    -1  
$EndComp
$Comp
L Connector:USB_B_Micro J5
U 1 1 5E1D2338
P 900 9100
F 0 "J5" H 650 9550 50  0000 C CNN
F 1 "USB_B_Micro" H 850 9450 50  0000 C CNN
F 2 "" H 1050 9050 50  0001 C CNN
F 3 "~" H 1050 9050 50  0001 C CNN
	1    900  9100
	1    0    0    -1  
$EndComp
Wire Wire Line
	800  9500 800  9700
Connection ~ 800  9700
NoConn ~ 4750 4350
NoConn ~ 4750 4450
NoConn ~ 4750 4550
NoConn ~ 4750 4650
NoConn ~ 4750 4750
NoConn ~ 4750 4850
NoConn ~ 4750 4950
NoConn ~ 4750 5050
NoConn ~ 4750 5150
NoConn ~ 4750 5250
NoConn ~ 4750 5350
$Comp
L Device:R R5
U 1 1 5E304357
P 4600 5950
F 0 "R5" V 4650 6200 50  0000 R CNN
F 1 "4.7K" V 4600 6050 50  0000 R CNN
F 2 "" V 4530 5950 50  0001 C CNN
F 3 "~" H 4600 5950 50  0001 C CNN
	1    4600 5950
	0    -1   -1   0   
$EndComp
$Comp
L Device:R R8
U 1 1 5E34BF88
P 4600 6250
F 0 "R8" V 4650 6500 50  0000 R CNN
F 1 "4.7K" V 4600 6350 50  0000 R CNN
F 2 "" V 4530 6250 50  0001 C CNN
F 3 "~" H 4600 6250 50  0001 C CNN
	1    4600 6250
	0    -1   -1   0   
$EndComp
$Comp
L Device:R R7
U 1 1 5E360654
P 4600 6150
F 0 "R7" V 4650 6400 50  0000 R CNN
F 1 "4.7K" V 4600 6250 50  0000 R CNN
F 2 "" V 4530 6150 50  0001 C CNN
F 3 "~" H 4600 6150 50  0001 C CNN
	1    4600 6150
	0    -1   -1   0   
$EndComp
$Comp
L Device:R R6
U 1 1 5E3609CA
P 4600 6050
F 0 "R6" V 4650 6300 50  0000 R CNN
F 1 "4.7K" V 4600 6150 50  0000 R CNN
F 2 "" V 4530 6050 50  0001 C CNN
F 3 "~" H 4600 6050 50  0001 C CNN
	1    4600 6050
	0    -1   -1   0   
$EndComp
$Comp
L Device:R R9
U 1 1 5E39F641
P 4600 6450
F 0 "R9" V 4650 6700 50  0000 R CNN
F 1 "4.7K" V 4600 6550 50  0000 R CNN
F 2 "" V 4530 6450 50  0001 C CNN
F 3 "~" H 4600 6450 50  0001 C CNN
	1    4600 6450
	0    -1   -1   0   
$EndComp
$Comp
L Device:C C12
U 1 1 5E416439
P 850 8200
F 0 "C12" H 965 8246 50  0000 L CNN
F 1 "10uF" H 965 8155 50  0000 L CNN
F 2 "" H 888 8050 50  0001 C CNN
F 3 "~" H 850 8200 50  0001 C CNN
	1    850  8200
	1    0    0    -1  
$EndComp
Wire Wire Line
	900  9500 900  9600
Wire Wire Line
	2100 9600 2100 10150
$Comp
L power:GND #PWR018
U 1 1 5E4475F1
P 850 8350
F 0 "#PWR018" H 850 8100 50  0001 C CNN
F 1 "GND" H 855 8177 50  0000 C CNN
F 2 "" H 850 8350 50  0001 C CNN
F 3 "" H 850 8350 50  0001 C CNN
	1    850  8350
	1    0    0    -1  
$EndComp
$Comp
L Device:R R10
U 1 1 5E457B50
P 1400 8050
F 0 "R10" V 1193 8050 50  0000 C CNN
F 1 "90.9KR 1%" V 1284 8050 50  0000 C CNN
F 2 "" V 1330 8050 50  0001 C CNN
F 3 "~" H 1400 8050 50  0001 C CNN
	1    1400 8050
	0    1    1    0   
$EndComp
Wire Wire Line
	1550 8050 1650 8050
$Comp
L Device:R R11
U 1 1 5E45F705
P 1650 8200
F 0 "R11" H 1580 8154 50  0000 R CNN
F 1 "10KR 1%" H 1580 8245 50  0000 R CNN
F 2 "" V 1580 8200 50  0001 C CNN
F 3 "~" H 1650 8200 50  0001 C CNN
	1    1650 8200
	-1   0    0    1   
$EndComp
$Comp
L power:GND #PWR019
U 1 1 5E46009F
P 1650 8350
F 0 "#PWR019" H 1650 8100 50  0001 C CNN
F 1 "GND" H 1655 8177 50  0000 C CNN
F 2 "" H 1650 8350 50  0001 C CNN
F 3 "" H 1650 8350 50  0001 C CNN
	1    1650 8350
	1    0    0    -1  
$EndComp
Wire Wire Line
	4750 3450 4650 3450
$Comp
L Device:C C6
U 1 1 5E495835
P 4500 3450
F 0 "C6" V 4550 3250 50  0000 L CNN
F 1 "1uF" V 4450 3250 50  0000 L CNN
F 2 "" H 4538 3300 50  0001 C CNN
F 3 "~" H 4500 3450 50  0001 C CNN
	1    4500 3450
	0    -1   -1   0   
$EndComp
$Comp
L power:GND #PWR011
U 1 1 5E49DE2E
P 4350 3450
F 0 "#PWR011" H 4350 3200 50  0001 C CNN
F 1 "GND" V 4450 3400 50  0000 C CNN
F 2 "" H 4350 3450 50  0001 C CNN
F 3 "" H 4350 3450 50  0001 C CNN
	1    4350 3450
	0    1    1    0   
$EndComp
NoConn ~ 14700 2200
$Comp
L power:GND #PWR05
U 1 1 5E2AEB98
P 13750 1800
F 0 "#PWR05" H 13750 1550 50  0001 C CNN
F 1 "GND" H 13755 1627 50  0000 C CNN
F 2 "" H 13750 1800 50  0001 C CNN
F 3 "" H 13750 1800 50  0001 C CNN
	1    13750 1800
	1    0    0    -1  
$EndComp
Wire Wire Line
	13900 1800 13750 1800
NoConn ~ 1200 9300
NoConn ~ 14500 1050
NoConn ~ 14400 1050
NoConn ~ 14300 1050
NoConn ~ 15700 1050
NoConn ~ 15600 1050
NoConn ~ 15500 1050
NoConn ~ 15400 1050
NoConn ~ 15300 1050
NoConn ~ 15200 1050
NoConn ~ 15100 1050
NoConn ~ 15000 1050
NoConn ~ 14900 1050
NoConn ~ 14800 1050
NoConn ~ 14700 1050
NoConn ~ 15400 2200
NoConn ~ 15500 2200
NoConn ~ 15600 2200
NoConn ~ 14600 1050
Wire Wire Line
	15100 6700 15550 6700
Connection ~ 15100 6700
NoConn ~ 15300 2200
NoConn ~ 15200 2200
NoConn ~ 15100 2200
NoConn ~ 15000 2200
NoConn ~ 14900 2200
NoConn ~ 14800 2200
$Comp
L Wraithan_Custom:Particle-Argon U1
U 1 1 5E2BC4D1
P 15050 1650
F 0 "U1" V 15550 2500 50  0000 R CNN
F 1 "Particle-Argon" V 15650 2700 50  0000 R CNN
F 2 "" H 15050 600 50  0001 C CNN
F 3 "" H 15050 600 50  0001 C CNN
	1    15050 1650
	0    -1   1    0   
$EndComp
$Comp
L Wraithan_Custom:MIC2039 U6
U 1 1 5E2168AB
P 9050 9700
F 0 "U6" H 9025 10065 50  0000 C CNN
F 1 "MIC2039" H 9025 9974 50  0000 C CNN
F 2 "" H 9050 10050 50  0001 C CNN
F 3 "" H 9050 10050 50  0001 C CNN
	1    9050 9700
	1    0    0    -1  
$EndComp
NoConn ~ 2150 1800
NoConn ~ 2200 1300
$Comp
L Wraithan_Custom:MIC2039 U3
U 1 1 5E25A280
P 9100 6400
F 0 "U3" H 9075 6765 50  0000 C CNN
F 1 "MIC2039" H 9075 6674 50  0000 C CNN
F 2 "" H 9100 6750 50  0001 C CNN
F 3 "" H 9100 6750 50  0001 C CNN
	1    9100 6400
	1    0    0    -1  
$EndComp
$Comp
L power:GND #PWR08
U 1 1 5E25A6E2
P 1650 2100
F 0 "#PWR08" H 1650 1850 50  0001 C CNN
F 1 "GND" H 1655 1927 50  0000 C CNN
F 2 "" H 1650 2100 50  0001 C CNN
F 3 "" H 1650 2100 50  0001 C CNN
	1    1650 2100
	1    0    0    -1  
$EndComp
Text GLabel 4750 5550 0    50   Input ~ 0
SCL
Text GLabel 4750 5650 0    50   Input ~ 0
SDA
Text GLabel 15700 2200 3    50   Input ~ 0
SCL
Text GLabel 15800 2200 3    50   Input ~ 0
SDA
Text GLabel 1200 9100 2    50   Input ~ 0
DP_UP
Text GLabel 1200 9200 2    50   Input ~ 0
DM_UP
Text GLabel 4750 3950 0    50   Input ~ 0
DP_UP
Text GLabel 4750 4050 0    50   Input ~ 0
DM_UP
Text GLabel 1850 8050 2    50   Input ~ 0
VBUS_UP
Text GLabel 4750 3250 0    50   Input ~ 0
VBUS_UP
Wire Wire Line
	1200 8050 1200 8900
Wire Wire Line
	1200 8050 1250 8050
Wire Wire Line
	1650 8050 1850 8050
Connection ~ 1650 8050
Wire Wire Line
	1200 8050 850  8050
Connection ~ 1200 8050
Wire Notes Line
	550  7750 2300 7750
Wire Notes Line
	2300 7750 2300 10400
Wire Notes Line
	2300 10400 550  10400
Wire Notes Line
	550  10400 550  7750
Text Notes 550  7700 0    50   ~ 0
Upstream USB Port
$Comp
L power:+3.3V #PWR014
U 1 1 5E59E025
P 4100 5750
F 0 "#PWR014" H 4100 5600 50  0001 C CNN
F 1 "+3.3V" V 4100 6000 50  0000 C CNN
F 2 "" H 4100 5750 50  0001 C CNN
F 3 "" H 4100 5750 50  0001 C CNN
	1    4100 5750
	0    -1   -1   0   
$EndComp
$Comp
L Device:R R4
U 1 1 5E2F40A9
P 4400 5750
F 0 "R4" V 4500 5800 50  0000 R CNN
F 1 "4.7K" V 4400 5850 50  0000 R CNN
F 2 "" V 4330 5750 50  0001 C CNN
F 3 "~" H 4400 5750 50  0001 C CNN
	1    4400 5750
	0    -1   -1   0   
$EndComp
Wire Wire Line
	4750 5750 4550 5750
$Comp
L power:GND #PWR016
U 1 1 5E323693
P 4250 6150
F 0 "#PWR016" H 4250 5900 50  0001 C CNN
F 1 "GND" V 4250 5950 50  0000 C CNN
F 2 "" H 4250 6150 50  0001 C CNN
F 3 "" H 4250 6150 50  0001 C CNN
	1    4250 6150
	0    1    1    0   
$EndComp
Wire Wire Line
	4250 5750 4100 5750
Wire Wire Line
	4450 6450 4250 6450
Wire Wire Line
	4250 6450 4250 6250
Wire Wire Line
	4250 5950 4250 6050
Wire Wire Line
	4250 5950 4450 5950
Connection ~ 4250 6150
Wire Wire Line
	4450 6050 4250 6050
Connection ~ 4250 6050
Wire Wire Line
	4250 6050 4250 6150
Wire Wire Line
	4450 6150 4250 6150
Wire Wire Line
	4450 6250 4250 6250
Connection ~ 4250 6250
Wire Wire Line
	4250 6250 4250 6150
$Comp
L Interface_USB:TUSB4041I U2
U 1 1 5E1CF9BF
P 6050 4650
F 0 "U2" H 6400 6750 50  0000 C CNN
F 1 "TUSB4041I" H 6550 6650 50  0000 C CNN
F 2 "Package_QFP:HTQFP-64-1EP_10x10mm_P0.5mm_EP8x8mm_Mask4.4x4.4mm_ThermalVias" H 7250 6650 50  0001 L CNN
F 3 "http://www.ti.com/lit/ds/symlink/tusb4041i.pdf" H 5750 4850 50  0001 C CNN
	1    6050 4650
	1    0    0    -1  
$EndComp
Text GLabel 7350 3050 2    50   Input ~ 0
DN1_DP
Text GLabel 7350 3150 2    50   Input ~ 0
DN1_DM
Text GLabel 7350 3650 2    50   Input ~ 0
DN2_DM
Text GLabel 7350 3550 2    50   Input ~ 0
DN2_DP
Text GLabel 7350 4050 2    50   Input ~ 0
DN3_DP
Text GLabel 7350 4550 2    50   Input ~ 0
DN4_DP
Text GLabel 7350 4150 2    50   Input ~ 0
DN3_DM
Text GLabel 7350 4650 2    50   Input ~ 0
DN4_DM
Text GLabel 13900 1600 0    50   Input ~ 0
DN1_DP
Text GLabel 13900 1700 0    50   Input ~ 0
DN1_DM
Text GLabel 13900 3000 0    50   Input ~ 0
DN2_DP
Text GLabel 13900 3100 0    50   Input ~ 0
DN2_DM
Text GLabel 13950 4500 0    50   Input ~ 0
DN3_DP
Text GLabel 13950 4600 0    50   Input ~ 0
DN3_DM
Text GLabel 14000 6050 0    50   Input ~ 0
DN4_DP
Text GLabel 14000 6150 0    50   Input ~ 0
DN4_DM
$Comp
L power:PWR_FLAG #FLG04
U 1 1 5E393476
P 1600 2050
F 0 "#FLG04" H 1600 2125 50  0001 C CNN
F 1 "PWR_FLAG" V 1600 2178 50  0000 L CNN
F 2 "" H 1600 2050 50  0001 C CNN
F 3 "~" H 1600 2050 50  0001 C CNN
	1    1600 2050
	0    -1   -1   0   
$EndComp
$Comp
L power:+5V #PWR04
U 1 1 5E3B8027
P 2500 1500
F 0 "#PWR04" H 2500 1350 50  0001 C CNN
F 1 "+5V" V 2515 1628 50  0000 L CNN
F 2 "" H 2500 1500 50  0001 C CNN
F 3 "" H 2500 1500 50  0001 C CNN
	1    2500 1500
	0    1    1    0   
$EndComp
$Comp
L power:+5VD #PWR03
U 1 1 5E3BD691
P 2500 1400
F 0 "#PWR03" H 2500 1250 50  0001 C CNN
F 1 "+5VD" V 2515 1528 50  0000 L CNN
F 2 "" H 2500 1400 50  0001 C CNN
F 3 "" H 2500 1400 50  0001 C CNN
	1    2500 1400
	0    1    1    0   
$EndComp
$Comp
L power:+3.3V #PWR06
U 1 1 5E3BEA99
P 2350 1700
F 0 "#PWR06" H 2350 1550 50  0001 C CNN
F 1 "+3.3V" V 2350 1850 50  0000 L CNN
F 2 "" H 2350 1700 50  0001 C CNN
F 3 "" H 2350 1700 50  0001 C CNN
	1    2350 1700
	-1   0    0    1   
$EndComp
Wire Wire Line
	2150 1500 2450 1500
Wire Wire Line
	2150 1400 2450 1400
$Comp
L Wraithan_Custom:ATX-24 J1
U 1 1 5E2124C4
P 1650 1400
F 0 "J1" H 1650 1967 50  0000 C CNN
F 1 "ATX-24" H 1650 1876 50  0000 C CNN
F 2 "" H 1650 1300 50  0001 C CNN
F 3 "" H 4050 850 50  0001 C CNN
	1    1650 1400
	1    0    0    -1  
$EndComp
Wire Wire Line
	1650 2000 1650 2050
Wire Wire Line
	1600 2050 1650 2050
Connection ~ 1650 2050
Wire Wire Line
	1650 2050 1650 2100
$Comp
L power:PWR_FLAG #FLG03
U 1 1 5E3FB8A4
P 2250 1700
F 0 "#FLG03" H 2250 1775 50  0001 C CNN
F 1 "PWR_FLAG" V 2250 2000 50  0000 C CNN
F 2 "" H 2250 1700 50  0001 C CNN
F 3 "~" H 2250 1700 50  0001 C CNN
	1    2250 1700
	-1   0    0    1   
$EndComp
Wire Wire Line
	2150 1600 2250 1600
Wire Wire Line
	2250 1600 2250 1700
Connection ~ 2250 1600
Wire Wire Line
	2250 1600 2350 1600
Wire Wire Line
	2350 1600 2350 1700
$Comp
L power:PWR_FLAG #FLG02
U 1 1 5E40E19D
P 2450 1500
F 0 "#FLG02" H 2450 1575 50  0001 C CNN
F 1 "PWR_FLAG" V 2450 1800 50  0000 C CNN
F 2 "" H 2450 1500 50  0001 C CNN
F 3 "~" H 2450 1500 50  0001 C CNN
	1    2450 1500
	-1   0    0    1   
$EndComp
Connection ~ 2450 1500
Wire Wire Line
	2450 1500 2500 1500
$Comp
L power:PWR_FLAG #FLG01
U 1 1 5E40E6CD
P 2450 1400
F 0 "#FLG01" H 2450 1475 50  0001 C CNN
F 1 "PWR_FLAG" H 2450 1550 50  0000 C CNN
F 2 "" H 2450 1400 50  0001 C CNN
F 3 "~" H 2450 1400 50  0001 C CNN
	1    2450 1400
	1    0    0    -1  
$EndComp
Connection ~ 2450 1400
Wire Wire Line
	2450 1400 2500 1400
Text GLabel 2150 1100 2    50   Input ~ 0
PSU_PWR_OK
$Comp
L Switch:SW_DIP_x01 SW1
U 1 1 5E40F69C
P 900 1500
F 0 "SW1" V 854 1630 50  0000 L CNN
F 1 "POWER_SWITCH" H 800 1350 50  0000 L CNN
F 2 "" H 900 1500 50  0001 C CNN
F 3 "~" H 900 1500 50  0001 C CNN
	1    900  1500
	0    1    1    0   
$EndComp
Wire Wire Line
	900  1200 900  1100
Wire Wire Line
	900  1100 1150 1100
$Comp
L power:GND #PWR07
U 1 1 5E416789
P 900 1800
F 0 "#PWR07" H 900 1550 50  0001 C CNN
F 1 "GND" H 905 1627 50  0000 C CNN
F 2 "" H 900 1800 50  0001 C CNN
F 3 "" H 900 1800 50  0001 C CNN
	1    900  1800
	1    0    0    -1  
$EndComp
$Comp
L Device:C C2
U 1 1 5E4C59EB
P 13750 2600
F 0 "C2" H 13635 2554 50  0000 R CNN
F 1 "0.1uF" H 13635 2645 50  0000 R CNN
F 2 "" H 13788 2450 50  0001 C CNN
F 3 "~" H 13750 2600 50  0001 C CNN
	1    13750 2600
	-1   0    0    1   
$EndComp
Wire Wire Line
	13750 2800 13900 2800
$Comp
L power:GND #PWR02
U 1 1 5E4CBC20
P 13750 2450
F 0 "#PWR02" H 13750 2200 50  0001 C CNN
F 1 "GND" H 13755 2277 50  0000 C CNN
F 2 "" H 13750 2450 50  0001 C CNN
F 3 "" H 13750 2450 50  0001 C CNN
	1    13750 2450
	-1   0    0    1   
$EndComp
Wire Wire Line
	13750 2800 13750 2750
Wire Wire Line
	13750 2800 13600 2800
Connection ~ 13750 2800
Text GLabel 13300 2800 0    50   Input ~ 0
DN2_VBUS
$Comp
L Device:C C5
U 1 1 5E4DAD96
P 13800 4100
F 0 "C5" H 13685 4054 50  0000 R CNN
F 1 "0.1uF" H 13685 4145 50  0000 R CNN
F 2 "" H 13838 3950 50  0001 C CNN
F 3 "~" H 13800 4100 50  0001 C CNN
	1    13800 4100
	-1   0    0    1   
$EndComp
Wire Wire Line
	13800 4300 13950 4300
$Comp
L power:GND #PWR010
U 1 1 5E4DAD9D
P 13800 3950
F 0 "#PWR010" H 13800 3700 50  0001 C CNN
F 1 "GND" H 13805 3777 50  0000 C CNN
F 2 "" H 13800 3950 50  0001 C CNN
F 3 "" H 13800 3950 50  0001 C CNN
	1    13800 3950
	-1   0    0    1   
$EndComp
Wire Wire Line
	13800 4300 13800 4250
Wire Wire Line
	13800 4300 13650 4300
Connection ~ 13800 4300
Text GLabel 13350 4300 0    50   Input ~ 0
DN3_VBUS
$Comp
L Device:C C9
U 1 1 5E4E006E
P 13850 5650
F 0 "C9" H 13735 5604 50  0000 R CNN
F 1 "0.1uF" H 13735 5695 50  0000 R CNN
F 2 "" H 13888 5500 50  0001 C CNN
F 3 "~" H 13850 5650 50  0001 C CNN
	1    13850 5650
	-1   0    0    1   
$EndComp
Wire Wire Line
	13850 5850 14000 5850
$Comp
L power:GND #PWR013
U 1 1 5E4E0075
P 13850 5500
F 0 "#PWR013" H 13850 5250 50  0001 C CNN
F 1 "GND" H 13855 5327 50  0000 C CNN
F 2 "" H 13850 5500 50  0001 C CNN
F 3 "" H 13850 5500 50  0001 C CNN
	1    13850 5500
	-1   0    0    1   
$EndComp
Wire Wire Line
	13850 5850 13850 5800
Wire Wire Line
	13850 5850 13700 5850
Connection ~ 13850 5850
Text GLabel 13400 5850 0    50   Input ~ 0
DN4_VBUS
$Comp
L Device:C C1
U 1 1 5E502C85
P 13750 1300
F 0 "C1" H 14000 1200 50  0000 R CNN
F 1 "0.1uF" H 14050 1300 50  0000 R CNN
F 2 "" H 13788 1150 50  0001 C CNN
F 3 "~" H 13750 1300 50  0001 C CNN
	1    13750 1300
	-1   0    0    1   
$EndComp
Wire Wire Line
	13750 1500 13900 1500
$Comp
L power:GND #PWR01
U 1 1 5E502C8C
P 13750 1150
F 0 "#PWR01" H 13750 900 50  0001 C CNN
F 1 "GND" H 13755 977 50  0000 C CNN
F 2 "" H 13750 1150 50  0001 C CNN
F 3 "" H 13750 1150 50  0001 C CNN
	1    13750 1150
	-1   0    0    1   
$EndComp
Wire Wire Line
	13750 1500 13750 1450
Connection ~ 13750 1500
Text GLabel 13050 1500 0    50   Input ~ 0
DN1_VBUS
$Comp
L Device:C C15
U 1 1 5E5090BB
P 8500 6100
F 0 "C15" H 8385 6054 50  0000 R CNN
F 1 "0.1uF" H 8385 6145 50  0000 R CNN
F 2 "" H 8538 5950 50  0001 C CNN
F 3 "~" H 8500 6100 50  0001 C CNN
	1    8500 6100
	-1   0    0    1   
$EndComp
$Comp
L power:GND #PWR021
U 1 1 5E5090C2
P 8500 5950
F 0 "#PWR021" H 8500 5700 50  0001 C CNN
F 1 "GND" H 8500 5800 50  0000 C CNN
F 2 "" H 8500 5950 50  0001 C CNN
F 3 "" H 8500 5950 50  0001 C CNN
	1    8500 5950
	-1   0    0    1   
$EndComp
$Comp
L Device:C C16
U 1 1 5E50F154
P 8450 7250
F 0 "C16" H 8335 7204 50  0000 R CNN
F 1 "0.1uF" H 8335 7295 50  0000 R CNN
F 2 "" H 8488 7100 50  0001 C CNN
F 3 "~" H 8450 7250 50  0001 C CNN
	1    8450 7250
	-1   0    0    1   
$EndComp
Wire Wire Line
	8450 7450 8600 7450
$Comp
L power:GND #PWR023
U 1 1 5E50F15B
P 8450 7100
F 0 "#PWR023" H 8450 6850 50  0001 C CNN
F 1 "GND" H 8450 6950 50  0000 C CNN
F 2 "" H 8450 7100 50  0001 C CNN
F 3 "" H 8450 7100 50  0001 C CNN
	1    8450 7100
	-1   0    0    1   
$EndComp
Wire Wire Line
	8450 7450 8450 7400
$Comp
L Device:C C17
U 1 1 5E513D53
P 8450 8300
F 0 "C17" H 8335 8254 50  0000 R CNN
F 1 "0.1uF" H 8335 8345 50  0000 R CNN
F 2 "" H 8488 8150 50  0001 C CNN
F 3 "~" H 8450 8300 50  0001 C CNN
	1    8450 8300
	-1   0    0    1   
$EndComp
Wire Wire Line
	8450 8500 8600 8500
$Comp
L power:GND #PWR025
U 1 1 5E513D5A
P 8450 8150
F 0 "#PWR025" H 8450 7900 50  0001 C CNN
F 1 "GND" H 8455 7977 50  0000 C CNN
F 2 "" H 8450 8150 50  0001 C CNN
F 3 "" H 8450 8150 50  0001 C CNN
	1    8450 8150
	-1   0    0    1   
$EndComp
Wire Wire Line
	8450 8500 8450 8450
$Comp
L Device:C C18
U 1 1 5E51AF43
P 8450 9400
F 0 "C18" H 8335 9354 50  0000 R CNN
F 1 "0.1uF" H 8335 9445 50  0000 R CNN
F 2 "" H 8488 9250 50  0001 C CNN
F 3 "~" H 8450 9400 50  0001 C CNN
	1    8450 9400
	-1   0    0    1   
$EndComp
Wire Wire Line
	8450 9600 8600 9600
$Comp
L power:GND #PWR027
U 1 1 5E51AF4A
P 8450 9250
F 0 "#PWR027" H 8450 9000 50  0001 C CNN
F 1 "GND" H 8455 9077 50  0000 C CNN
F 2 "" H 8450 9250 50  0001 C CNN
F 3 "" H 8450 9250 50  0001 C CNN
	1    8450 9250
	-1   0    0    1   
$EndComp
Wire Wire Line
	8450 9600 8450 9550
Text GLabel 7350 3350 2    50   Input ~ 0
DN1_FAULT
Text GLabel 7350 3850 2    50   Input ~ 0
DN2_FAULT
Text GLabel 7350 4350 2    50   Input ~ 0
DN3_FAULT
Text GLabel 7350 4850 2    50   Input ~ 0
DN4_FAULT
Text GLabel 8150 6400 0    50   Input ~ 0
DN1_FAULT
Wire Wire Line
	8500 6300 8650 6300
Connection ~ 8500 6300
Wire Wire Line
	8500 6300 8500 6250
$Comp
L Device:C C21
U 1 1 5E58EE2F
P 4900 2250
F 0 "C21" V 4850 2050 50  0000 L CNN
F 1 "0.1uF" V 4950 2000 50  0000 L CNN
F 2 "" H 4938 2100 50  0001 C CNN
F 3 "~" H 4900 2250 50  0001 C CNN
	1    4900 2250
	0    1    1    0   
$EndComp
$Comp
L Device:C C22
U 1 1 5E594FF8
P 4900 2450
F 0 "C22" V 4850 2250 50  0000 L CNN
F 1 "0.1uF" V 4950 2200 50  0000 L CNN
F 2 "" H 4938 2300 50  0001 C CNN
F 3 "~" H 4900 2450 50  0001 C CNN
	1    4900 2450
	0    1    1    0   
$EndComp
$Comp
L Device:C C20
U 1 1 5E5954C5
P 4900 2050
F 0 "C20" V 4850 1850 50  0000 L CNN
F 1 "0.1uF" V 4950 1800 50  0000 L CNN
F 2 "" H 4938 1900 50  0001 C CNN
F 3 "~" H 4900 2050 50  0001 C CNN
	1    4900 2050
	0    1    1    0   
$EndComp
$Comp
L Device:C C19
U 1 1 5E5957F2
P 4900 1850
F 0 "C19" V 4850 1650 50  0000 L CNN
F 1 "0.1uF" V 4950 1600 50  0000 L CNN
F 2 "" H 4938 1700 50  0001 C CNN
F 3 "~" H 4900 1850 50  0001 C CNN
	1    4900 1850
	0    1    1    0   
$EndComp
Wire Wire Line
	5150 2550 5150 2450
Wire Wire Line
	5150 2450 5050 2450
Wire Wire Line
	5250 2550 5250 2250
Wire Wire Line
	5250 2250 5150 2250
Wire Wire Line
	5350 2550 5350 2050
Wire Wire Line
	5350 2050 5150 2050
Wire Wire Line
	5450 2550 5450 1850
Wire Wire Line
	5450 1850 5150 1850
$Comp
L power:GND #PWR029
U 1 1 5E5AB3EB
P 4600 1850
F 0 "#PWR029" H 4600 1600 50  0001 C CNN
F 1 "GND" H 4605 1677 50  0000 C CNN
F 2 "" H 4600 1850 50  0001 C CNN
F 3 "" H 4600 1850 50  0001 C CNN
	1    4600 1850
	0    1    1    0   
$EndComp
$Comp
L power:GND #PWR030
U 1 1 5E5ABFDE
P 4600 2050
F 0 "#PWR030" H 4600 1800 50  0001 C CNN
F 1 "GND" H 4605 1877 50  0000 C CNN
F 2 "" H 4600 2050 50  0001 C CNN
F 3 "" H 4600 2050 50  0001 C CNN
	1    4600 2050
	0    1    1    0   
$EndComp
$Comp
L power:GND #PWR031
U 1 1 5E5AC260
P 4600 2250
F 0 "#PWR031" H 4600 2000 50  0001 C CNN
F 1 "GND" H 4605 2077 50  0000 C CNN
F 2 "" H 4600 2250 50  0001 C CNN
F 3 "" H 4600 2250 50  0001 C CNN
	1    4600 2250
	0    1    1    0   
$EndComp
$Comp
L power:GND #PWR032
U 1 1 5E5AC65A
P 4600 2450
F 0 "#PWR032" H 4600 2200 50  0001 C CNN
F 1 "GND" H 4605 2277 50  0000 C CNN
F 2 "" H 4600 2450 50  0001 C CNN
F 3 "" H 4600 2450 50  0001 C CNN
	1    4600 2450
	0    1    1    0   
$EndComp
Wire Wire Line
	4600 2450 4750 2450
Wire Wire Line
	4600 2250 4750 2250
Wire Wire Line
	4600 2050 4750 2050
Wire Wire Line
	4600 1850 4750 1850
$Comp
L power:+3.3V #PWR033
U 1 1 5E5C447B
P 5150 1000
F 0 "#PWR033" H 5150 850 50  0001 C CNN
F 1 "+3.3V" H 5165 1173 50  0000 C CNN
F 2 "" H 5150 1000 50  0001 C CNN
F 3 "" H 5150 1000 50  0001 C CNN
	1    5150 1000
	1    0    0    -1  
$EndComp
Connection ~ 5150 2450
Connection ~ 5150 2250
Wire Wire Line
	5150 2250 5050 2250
Wire Wire Line
	5150 2250 5150 2450
Connection ~ 5150 2050
Wire Wire Line
	5150 2050 5050 2050
Wire Wire Line
	5150 2050 5150 2250
Connection ~ 5150 1850
Wire Wire Line
	5150 1850 5050 1850
Wire Wire Line
	5150 1850 5150 2050
$Comp
L Device:C C29
U 1 1 5E5CC97C
P 6500 2350
F 0 "C29" V 6550 2150 50  0000 L CNN
F 1 "0.1uF" V 6450 2100 50  0000 L CNN
F 2 "" H 6538 2200 50  0001 C CNN
F 3 "~" H 6500 2350 50  0001 C CNN
	1    6500 2350
	0    -1   -1   0   
$EndComp
$Comp
L Device:C C28
U 1 1 5E5CFB9A
P 6500 2150
F 0 "C28" V 6550 1950 50  0000 L CNN
F 1 "0.1uF" V 6450 1900 50  0000 L CNN
F 2 "" H 6538 2000 50  0001 C CNN
F 3 "~" H 6500 2150 50  0001 C CNN
	1    6500 2150
	0    -1   -1   0   
$EndComp
$Comp
L Device:C C27
U 1 1 5E5CFF40
P 6500 1950
F 0 "C27" V 6550 1750 50  0000 L CNN
F 1 "0.1uF" V 6450 1700 50  0000 L CNN
F 2 "" H 6538 1800 50  0001 C CNN
F 3 "~" H 6500 1950 50  0001 C CNN
	1    6500 1950
	0    -1   -1   0   
$EndComp
$Comp
L Device:C C26
U 1 1 5E5D0378
P 6250 1700
F 0 "C26" H 6250 1600 50  0000 L CNN
F 1 "0.1uF" H 6150 1800 50  0000 L CNN
F 2 "" H 6288 1550 50  0001 C CNN
F 3 "~" H 6250 1700 50  0001 C CNN
	1    6250 1700
	-1   0    0    1   
$EndComp
$Comp
L Device:C C24
U 1 1 5E5D1E81
P 5850 1700
F 0 "C24" H 5850 1600 50  0000 L CNN
F 1 "0.1uF" H 5750 1800 50  0000 L CNN
F 2 "" H 5888 1550 50  0001 C CNN
F 3 "~" H 5850 1700 50  0001 C CNN
	1    5850 1700
	-1   0    0    1   
$EndComp
$Comp
L Device:C C23
U 1 1 5E5D231F
P 5650 1700
F 0 "C23" H 5650 1600 50  0000 L CNN
F 1 "0.1uF" H 5550 1800 50  0000 L CNN
F 2 "" H 5688 1550 50  0001 C CNN
F 3 "~" H 5650 1700 50  0001 C CNN
	1    5650 1700
	-1   0    0    1   
$EndComp
Wire Wire Line
	5650 2550 5650 2500
Wire Wire Line
	5750 2550 5750 2500
Wire Wire Line
	5750 1850 5850 1850
Wire Wire Line
	5850 2550 5850 2500
Wire Wire Line
	5850 1950 6050 1950
Wire Wire Line
	6050 1950 6050 1850
Wire Wire Line
	5950 2550 5950 2500
Wire Wire Line
	5950 2050 6150 2050
Wire Wire Line
	6150 2050 6150 1850
Wire Wire Line
	6150 1850 6250 1850
Wire Wire Line
	6050 2550 6050 2500
Wire Wire Line
	6050 2150 6250 2150
Wire Wire Line
	6250 2150 6250 1950
Wire Wire Line
	6250 1950 6350 1950
Wire Wire Line
	6150 2550 6150 2500
Wire Wire Line
	6150 2250 6350 2250
Wire Wire Line
	6350 2250 6350 2150
Wire Wire Line
	6250 2550 6250 2500
Wire Wire Line
	6250 2350 6350 2350
$Comp
L Device:C C25
U 1 1 5E5D06A3
P 6050 1700
F 0 "C25" H 6050 1600 50  0000 L CNN
F 1 "0.1uF" H 5950 1800 50  0000 L CNN
F 2 "" H 6088 1550 50  0001 C CNN
F 3 "~" H 6050 1700 50  0001 C CNN
	1    6050 1700
	-1   0    0    1   
$EndComp
Wire Wire Line
	5650 1550 5650 1500
Wire Wire Line
	5650 1500 5850 1500
Wire Wire Line
	6800 1500 6800 1700
Wire Wire Line
	6800 2350 6650 2350
Wire Wire Line
	5850 1550 5850 1500
Connection ~ 5850 1500
Wire Wire Line
	5850 1500 6050 1500
Wire Wire Line
	6050 1550 6050 1500
Connection ~ 6050 1500
Wire Wire Line
	6050 1500 6250 1500
Wire Wire Line
	6250 1550 6250 1500
Connection ~ 6250 1500
Wire Wire Line
	6250 1500 6800 1500
Wire Wire Line
	6650 1950 6800 1950
Connection ~ 6800 1950
Wire Wire Line
	6800 1950 6800 2150
Wire Wire Line
	6650 2150 6800 2150
Connection ~ 6800 2150
Wire Wire Line
	6800 2150 6800 2350
$Comp
L power:GND #PWR0101
U 1 1 5E645B77
P 6800 1700
F 0 "#PWR0101" H 6800 1450 50  0001 C CNN
F 1 "GND" H 6805 1527 50  0000 C CNN
F 2 "" H 6800 1700 50  0001 C CNN
F 3 "" H 6800 1700 50  0001 C CNN
	1    6800 1700
	0    -1   -1   0   
$EndComp
Connection ~ 6800 1700
Wire Wire Line
	6800 1700 6800 1950
$Comp
L power:+1V1 #PWR0102
U 1 1 5E647089
P 7550 2500
F 0 "#PWR0102" H 7550 2350 50  0001 C CNN
F 1 "+1V1" V 7565 2628 50  0000 L CNN
F 2 "" H 7550 2500 50  0001 C CNN
F 3 "" H 7550 2500 50  0001 C CNN
	1    7550 2500
	0    1    1    0   
$EndComp
Wire Wire Line
	5650 2500 5750 2500
Connection ~ 5650 2500
Wire Wire Line
	5650 2500 5650 1850
Connection ~ 5750 2500
Wire Wire Line
	5750 2500 5750 1850
Wire Wire Line
	5750 2500 5850 2500
Connection ~ 5850 2500
Wire Wire Line
	5850 2500 5850 1950
Wire Wire Line
	5850 2500 5950 2500
Connection ~ 5950 2500
Wire Wire Line
	5950 2500 5950 2050
Wire Wire Line
	5950 2500 6050 2500
Connection ~ 6050 2500
Wire Wire Line
	6050 2500 6050 2150
Wire Wire Line
	6050 2500 6150 2500
Connection ~ 6150 2500
Wire Wire Line
	6150 2500 6150 2250
Wire Wire Line
	6150 2500 6250 2500
Connection ~ 6250 2500
Wire Wire Line
	6250 2500 6250 2350
$Comp
L power:GND #PWR037
U 1 1 5E6542EC
P 9450 7650
F 0 "#PWR037" H 9450 7400 50  0001 C CNN
F 1 "GND" V 9455 7522 50  0000 R CNN
F 2 "" H 9450 7650 50  0001 C CNN
F 3 "" H 9450 7650 50  0001 C CNN
	1    9450 7650
	0    -1   -1   0   
$EndComp
$Comp
L power:GND #PWR038
U 1 1 5E6549A0
P 9450 8700
F 0 "#PWR038" H 9450 8450 50  0001 C CNN
F 1 "GND" V 9455 8572 50  0000 R CNN
F 2 "" H 9450 8700 50  0001 C CNN
F 3 "" H 9450 8700 50  0001 C CNN
	1    9450 8700
	0    -1   -1   0   
$EndComp
$Comp
L power:GND #PWR039
U 1 1 5E654F8A
P 9450 9800
F 0 "#PWR039" H 9450 9550 50  0001 C CNN
F 1 "GND" V 9455 9672 50  0000 R CNN
F 2 "" H 9450 9800 50  0001 C CNN
F 3 "" H 9450 9800 50  0001 C CNN
	1    9450 9800
	0    -1   -1   0   
$EndComp
$Comp
L Device:CP C30
U 1 1 5E7451AF
P 4900 1450
F 0 "C30" V 4850 1300 50  0000 C CNN
F 1 "10uF" V 4950 1300 50  0000 C CNN
F 2 "" H 4938 1300 50  0001 C CNN
F 3 "~" H 4900 1450 50  0001 C CNN
	1    4900 1450
	0    1    1    0   
$EndComp
$Comp
L power:GND #PWR034
U 1 1 5E746869
P 4600 1450
F 0 "#PWR034" H 4600 1200 50  0001 C CNN
F 1 "GND" H 4605 1277 50  0000 C CNN
F 2 "" H 4600 1450 50  0001 C CNN
F 3 "" H 4600 1450 50  0001 C CNN
	1    4600 1450
	0    1    1    0   
$EndComp
Wire Wire Line
	4600 1450 4750 1450
Wire Wire Line
	5050 1450 5150 1450
Connection ~ 5150 1450
Wire Wire Line
	5150 1450 5150 1850
$Comp
L Device:CP C31
U 1 1 5E75CF85
P 7100 2300
F 0 "C31" H 7200 2200 50  0000 C CNN
F 1 "10uF" H 7200 2400 50  0000 C CNN
F 2 "" H 7138 2150 50  0001 C CNN
F 3 "~" H 7100 2300 50  0001 C CNN
	1    7100 2300
	-1   0    0    1   
$EndComp
$Comp
L power:GND #PWR035
U 1 1 5E75CF8F
P 7100 2000
F 0 "#PWR035" H 7100 1750 50  0001 C CNN
F 1 "GND" H 7105 1827 50  0000 C CNN
F 2 "" H 7100 2000 50  0001 C CNN
F 3 "" H 7100 2000 50  0001 C CNN
	1    7100 2000
	-1   0    0    1   
$EndComp
Wire Wire Line
	7100 2000 7100 2150
Wire Wire Line
	6250 2500 7100 2500
Wire Wire Line
	7100 2500 7100 2450
Connection ~ 7100 2500
Wire Wire Line
	7100 2500 7250 2500
Text GLabel 8650 6500 0    50   Input ~ 0
DN1_EN
Text GLabel 8600 7650 0    50   Input ~ 0
DN2_EN
Text GLabel 8600 8700 0    50   Input ~ 0
DN3_EN
Text GLabel 8600 9800 0    50   Input ~ 0
DN4_EN
Text GLabel 7350 3250 2    50   Input ~ 0
DN1_EN
Text GLabel 7350 3750 2    50   Input ~ 0
DN2_EN
Text GLabel 7350 4250 2    50   Input ~ 0
DN3_EN
Text GLabel 7350 4750 2    50   Input ~ 0
DN4_EN
$Comp
L Device:Crystal Y1
U 1 1 5E7C9ED6
P 3700 3700
F 0 "Y1" V 3800 3850 50  0000 R CNN
F 1 "24MHz" V 3700 3800 50  0000 R CNN
F 2 "" H 3700 3700 50  0001 C CNN
F 3 "~" H 3700 3700 50  0001 C CNN
	1    3700 3700
	0    -1   -1   0   
$EndComp
Wire Wire Line
	4200 3550 4200 3650
Wire Wire Line
	4200 3650 4750 3650
Wire Wire Line
	4400 3850 4400 3750
Wire Wire Line
	4400 3750 4750 3750
Wire Wire Line
	3700 3550 4000 3550
Wire Wire Line
	3700 3850 4000 3850
$Comp
L Device:R R13
U 1 1 5E7FDA39
P 4000 3700
F 0 "R13" H 4200 3700 50  0000 R CNN
F 1 "1MR" V 4000 3800 50  0000 R CNN
F 2 "" V 3930 3700 50  0001 C CNN
F 3 "~" H 4000 3700 50  0001 C CNN
	1    4000 3700
	1    0    0    -1  
$EndComp
Connection ~ 4000 3550
Wire Wire Line
	4000 3550 4200 3550
Connection ~ 4000 3850
Wire Wire Line
	4000 3850 4400 3850
Wire Wire Line
	3700 3550 3450 3550
Connection ~ 3700 3550
Wire Wire Line
	3700 3850 3450 3850
Connection ~ 3700 3850
$Comp
L Device:C C32
U 1 1 5E8181A8
P 3300 3550
F 0 "C32" V 3250 3350 50  0000 L CNN
F 1 "18pF" V 3350 3300 50  0000 L CNN
F 2 "" H 3338 3400 50  0001 C CNN
F 3 "~" H 3300 3550 50  0001 C CNN
	1    3300 3550
	0    1    1    0   
$EndComp
$Comp
L Device:C C33
U 1 1 5E819405
P 3300 3850
F 0 "C33" V 3250 3650 50  0000 L CNN
F 1 "18pF" V 3350 3600 50  0000 L CNN
F 2 "" H 3338 3700 50  0001 C CNN
F 3 "~" H 3300 3850 50  0001 C CNN
	1    3300 3850
	0    1    1    0   
$EndComp
Wire Wire Line
	3150 3550 3000 3550
Wire Wire Line
	3000 3550 3000 3700
Wire Wire Line
	3000 3850 3150 3850
$Comp
L power:GND #PWR040
U 1 1 5E826FA1
P 3000 3700
F 0 "#PWR040" H 3000 3450 50  0001 C CNN
F 1 "GND" H 3005 3527 50  0000 C CNN
F 2 "" H 3000 3700 50  0001 C CNN
F 3 "" H 3000 3700 50  0001 C CNN
	1    3000 3700
	0    1    1    0   
$EndComp
Connection ~ 3000 3700
Wire Wire Line
	3000 3700 3000 3850
Wire Wire Line
	2150 1300 2200 1300
$Comp
L Device:Ferrite_Bead FB1
U 1 1 5E846BAE
P 5150 1150
F 0 "FB1" H 5287 1196 50  0000 L CNN
F 1 "220@100MHz" H 5287 1105 50  0000 L CNN
F 2 "" V 5080 1150 50  0001 C CNN
F 3 "~" H 5150 1150 50  0001 C CNN
	1    5150 1150
	1    0    0    -1  
$EndComp
Wire Wire Line
	5150 1300 5150 1450
$Comp
L Device:Ferrite_Bead FB2
U 1 1 5E848AE3
P 7400 2500
F 0 "FB2" V 7550 2500 50  0000 C CNN
F 1 "220@100MHz" V 7250 2500 50  0000 C CNN
F 2 "" V 7330 2500 50  0001 C CNN
F 3 "~" H 7400 2500 50  0001 C CNN
	1    7400 2500
	0    -1   -1   0   
$EndComp
$Comp
L Device:Ferrite_Bead FB4
U 1 1 5E86671B
P 13450 2800
F 0 "FB4" V 13700 2800 50  0000 C CNN
F 1 "220@100MHz" V 13600 2850 50  0000 C CNN
F 2 "" V 13380 2800 50  0001 C CNN
F 3 "~" H 13450 2800 50  0001 C CNN
	1    13450 2800
	0    -1   -1   0   
$EndComp
$Comp
L Device:Ferrite_Bead FB3
U 1 1 5E868449
P 13200 1500
F 0 "FB3" V 13450 1500 50  0000 C CNN
F 1 "220@100MHz" V 13350 1550 50  0000 C CNN
F 2 "" V 13130 1500 50  0001 C CNN
F 3 "~" H 13200 1500 50  0001 C CNN
	1    13200 1500
	0    -1   -1   0   
$EndComp
Wire Wire Line
	13350 1500 13750 1500
$Comp
L Device:Ferrite_Bead FB5
U 1 1 5E8853E9
P 13500 4300
F 0 "FB5" V 13750 4300 50  0000 C CNN
F 1 "220@100MHz" V 13650 4350 50  0000 C CNN
F 2 "" V 13430 4300 50  0001 C CNN
F 3 "~" H 13500 4300 50  0001 C CNN
	1    13500 4300
	0    -1   -1   0   
$EndComp
$Comp
L Device:Ferrite_Bead FB6
U 1 1 5E885E2B
P 13550 5850
F 0 "FB6" V 13800 5850 50  0000 C CNN
F 1 "220@100MHz" V 13700 5900 50  0000 C CNN
F 2 "" V 13480 5850 50  0001 C CNN
F 3 "~" H 13550 5850 50  0001 C CNN
	1    13550 5850
	0    -1   -1   0   
$EndComp
$Comp
L power:+5V #PWR022
U 1 1 5E50CF83
P 8350 5950
F 0 "#PWR022" H 8350 5800 50  0001 C CNN
F 1 "+5V" H 8200 6100 50  0000 L CNN
F 2 "" H 8350 5950 50  0001 C CNN
F 3 "" H 8350 5950 50  0001 C CNN
	1    8350 5950
	1    0    0    -1  
$EndComp
$Comp
L Device:R R14
U 1 1 5E8A6E8E
P 8250 6150
F 0 "R14" H 8300 6100 50  0000 L CNN
F 1 "10KR" H 8300 6200 50  0000 L CNN
F 2 "" V 8180 6150 50  0001 C CNN
F 3 "~" H 8250 6150 50  0001 C CNN
	1    8250 6150
	-1   0    0    1   
$EndComp
Wire Wire Line
	8250 6400 8250 6300
Wire Wire Line
	8250 6400 8150 6400
Wire Wire Line
	8350 5950 8350 6000
Wire Wire Line
	8350 6300 8500 6300
Connection ~ 8350 6000
Wire Wire Line
	8350 6000 8350 6300
Wire Wire Line
	8250 6000 8350 6000
Wire Wire Line
	8250 6400 8650 6400
Connection ~ 8250 6400
Text GLabel 8100 7550 0    50   Input ~ 0
DN2_FAULT
$Comp
L power:+5V #PWR024
U 1 1 5E95A949
P 8300 7100
F 0 "#PWR024" H 8300 6950 50  0001 C CNN
F 1 "+5V" H 8150 7250 50  0000 L CNN
F 2 "" H 8300 7100 50  0001 C CNN
F 3 "" H 8300 7100 50  0001 C CNN
	1    8300 7100
	1    0    0    -1  
$EndComp
$Comp
L Device:R R15
U 1 1 5E95A953
P 8200 7300
F 0 "R15" H 8250 7250 50  0000 L CNN
F 1 "10KR" H 8250 7350 50  0000 L CNN
F 2 "" V 8130 7300 50  0001 C CNN
F 3 "~" H 8200 7300 50  0001 C CNN
	1    8200 7300
	-1   0    0    1   
$EndComp
Wire Wire Line
	8200 7550 8200 7450
Wire Wire Line
	8200 7550 8100 7550
Wire Wire Line
	8300 7100 8300 7150
Wire Wire Line
	8300 7450 8450 7450
Connection ~ 8300 7150
Wire Wire Line
	8300 7150 8300 7450
Wire Wire Line
	8200 7150 8300 7150
Wire Wire Line
	8200 7550 8600 7550
Connection ~ 8200 7550
Connection ~ 8450 7450
Text GLabel 8100 8600 0    50   Input ~ 0
DN3_FAULT
$Comp
L power:+5V #PWR026
U 1 1 5E96D228
P 8300 8150
F 0 "#PWR026" H 8300 8000 50  0001 C CNN
F 1 "+5V" H 8150 8300 50  0000 L CNN
F 2 "" H 8300 8150 50  0001 C CNN
F 3 "" H 8300 8150 50  0001 C CNN
	1    8300 8150
	1    0    0    -1  
$EndComp
$Comp
L Device:R R16
U 1 1 5E96D232
P 8200 8350
F 0 "R16" H 8250 8300 50  0000 L CNN
F 1 "10KR" H 8250 8400 50  0000 L CNN
F 2 "" V 8130 8350 50  0001 C CNN
F 3 "~" H 8200 8350 50  0001 C CNN
	1    8200 8350
	-1   0    0    1   
$EndComp
Wire Wire Line
	8200 8600 8200 8500
Wire Wire Line
	8200 8600 8100 8600
Wire Wire Line
	8300 8150 8300 8200
Wire Wire Line
	8300 8500 8450 8500
Connection ~ 8300 8200
Wire Wire Line
	8300 8200 8300 8500
Wire Wire Line
	8200 8200 8300 8200
Wire Wire Line
	8200 8600 8600 8600
Connection ~ 8200 8600
Connection ~ 8450 8500
Text GLabel 8100 9700 0    50   Input ~ 0
DN4_FAULT
$Comp
L power:+5V #PWR028
U 1 1 5E97EBED
P 8300 9250
F 0 "#PWR028" H 8300 9100 50  0001 C CNN
F 1 "+5V" H 8150 9400 50  0000 L CNN
F 2 "" H 8300 9250 50  0001 C CNN
F 3 "" H 8300 9250 50  0001 C CNN
	1    8300 9250
	1    0    0    -1  
$EndComp
$Comp
L Device:R R17
U 1 1 5E97EBF7
P 8200 9450
F 0 "R17" H 8250 9400 50  0000 L CNN
F 1 "10KR" H 8250 9500 50  0000 L CNN
F 2 "" V 8130 9450 50  0001 C CNN
F 3 "~" H 8200 9450 50  0001 C CNN
	1    8200 9450
	-1   0    0    1   
$EndComp
Wire Wire Line
	8200 9700 8200 9600
Wire Wire Line
	8200 9700 8100 9700
Wire Wire Line
	8300 9250 8300 9300
Wire Wire Line
	8300 9600 8450 9600
Connection ~ 8300 9300
Wire Wire Line
	8300 9300 8300 9600
Wire Wire Line
	8200 9300 8300 9300
Wire Wire Line
	8200 9700 8600 9700
Connection ~ 8200 9700
Connection ~ 8450 9600
Wire Wire Line
	900  9600 2100 9600
Text GLabel 9450 9600 2    50   Input ~ 0
DN4_VBUS
Text GLabel 9450 8500 2    50   Input ~ 0
DN3_VBUS
Text GLabel 9450 7450 2    50   Input ~ 0
DN2_VBUS
Text GLabel 9500 6300 2    50   Input ~ 0
DN1_VBUS
Text GLabel 9500 6400 2    50   Input ~ 0
DN1_ILM
Text GLabel 9450 7550 2    50   Input ~ 0
DN2_ILM
Text GLabel 9450 8600 2    50   Input ~ 0
DN3_ILM
Text GLabel 9450 9700 2    50   Input ~ 0
DN4_ILM
Text GLabel 11150 7200 0    50   Input ~ 0
DN1_ILM
Text GLabel 11150 7500 0    50   Input ~ 0
DN2_ILM
Text GLabel 11150 7800 0    50   Input ~ 0
DN3_ILM
Text GLabel 11150 8100 0    50   Input ~ 0
DN4_ILM
$Comp
L power:GND #PWR0103
U 1 1 5EB1221A
P 9500 6500
F 0 "#PWR0103" H 9500 6250 50  0001 C CNN
F 1 "GND" V 9505 6372 50  0000 R CNN
F 2 "" H 9500 6500 50  0001 C CNN
F 3 "" H 9500 6500 50  0001 C CNN
	1    9500 6500
	0    -1   -1   0   
$EndComp
$Comp
L power:GND #PWR0104
U 1 1 5EB129CF
P 11150 7300
F 0 "#PWR0104" H 11150 7050 50  0001 C CNN
F 1 "GND" V 11155 7172 50  0000 R CNN
F 2 "" H 11150 7300 50  0001 C CNN
F 3 "" H 11150 7300 50  0001 C CNN
	1    11150 7300
	0    1    1    0   
$EndComp
$Comp
L power:GND #PWR0105
U 1 1 5EB1499E
P 11150 7600
F 0 "#PWR0105" H 11150 7350 50  0001 C CNN
F 1 "GND" V 11155 7472 50  0000 R CNN
F 2 "" H 11150 7600 50  0001 C CNN
F 3 "" H 11150 7600 50  0001 C CNN
	1    11150 7600
	0    1    1    0   
$EndComp
$Comp
L power:GND #PWR0106
U 1 1 5EB14F3D
P 11150 7900
F 0 "#PWR0106" H 11150 7650 50  0001 C CNN
F 1 "GND" V 11155 7772 50  0000 R CNN
F 2 "" H 11150 7900 50  0001 C CNN
F 3 "" H 11150 7900 50  0001 C CNN
	1    11150 7900
	0    1    1    0   
$EndComp
$Comp
L Wraithan_Custom:MCP44X2 U7
U 1 1 5EB49AF1
P 11650 7700
F 0 "U7" H 11650 8465 50  0000 C CNN
F 1 "MCP44X2" H 11650 8374 50  0000 C CNN
F 2 "" H 11650 8450 50  0001 C CNN
F 3 "http://ww1.microchip.com/downloads/en/DeviceDoc/MCP4451.pdf" H 11650 8450 50  0001 C CNN
	1    11650 7700
	-1   0    0    -1  
$EndComp
$Comp
L power:GND #PWR0107
U 1 1 5EB5BAF4
P 11150 8200
F 0 "#PWR0107" H 11150 7950 50  0001 C CNN
F 1 "GND" V 11155 8072 50  0000 R CNN
F 2 "" H 11150 8200 50  0001 C CNN
F 3 "" H 11150 8200 50  0001 C CNN
	1    11150 8200
	0    1    1    0   
$EndComp
$Comp
L Wraithan_Custom:MIC2039 U5
U 1 1 5E216403
P 9050 8600
F 0 "U5" H 9025 8965 50  0000 C CNN
F 1 "MIC2039" H 9025 8874 50  0000 C CNN
F 2 "" H 9050 8950 50  0001 C CNN
F 3 "" H 9050 8950 50  0001 C CNN
	1    9050 8600
	1    0    0    -1  
$EndComp
$Comp
L Wraithan_Custom:MIC2039 U4
U 1 1 5E2114DE
P 9050 7550
F 0 "U4" H 9025 7915 50  0000 C CNN
F 1 "MIC2039" H 9025 7824 50  0000 C CNN
F 2 "" H 9050 7900 50  0001 C CNN
F 3 "" H 9050 7900 50  0001 C CNN
	1    9050 7550
	1    0    0    -1  
$EndComp
Text GLabel 12150 7500 2    50   Input ~ 0
SCL
Text GLabel 12150 7600 2    50   Input ~ 0
SDA
$Comp
L Device:R R18
U 1 1 5EB6E9C5
P 12300 7200
F 0 "R18" V 12350 6950 50  0000 L CNN
F 1 "10K" V 12300 7100 50  0000 L CNN
F 2 "" V 12230 7200 50  0001 C CNN
F 3 "~" H 12300 7200 50  0001 C CNN
	1    12300 7200
	0    -1   -1   0   
$EndComp
$Comp
L power:GND #PWR0108
U 1 1 5EB707B6
P 12550 7200
F 0 "#PWR0108" H 12550 6950 50  0001 C CNN
F 1 "GND" V 12555 7072 50  0000 R CNN
F 2 "" H 12550 7200 50  0001 C CNN
F 3 "" H 12550 7200 50  0001 C CNN
	1    12550 7200
	0    -1   -1   0   
$EndComp
Wire Wire Line
	12450 7200 12550 7200
$Comp
L Device:R R19
U 1 1 5EB81B51
P 12300 7300
F 0 "R19" V 12350 7050 50  0000 L CNN
F 1 "10K" V 12300 7200 50  0000 L CNN
F 2 "" V 12230 7300 50  0001 C CNN
F 3 "~" H 12300 7300 50  0001 C CNN
	1    12300 7300
	0    -1   -1   0   
$EndComp
Wire Wire Line
	12450 7300 12550 7300
Wire Wire Line
	12550 7300 12550 7200
Connection ~ 12550 7200
$Comp
L power:GND #PWR0109
U 1 1 5EB930E2
P 12350 8550
F 0 "#PWR0109" H 12350 8300 50  0001 C CNN
F 1 "GND" V 12355 8422 50  0000 R CNN
F 2 "" H 12350 8550 50  0001 C CNN
F 3 "" H 12350 8550 50  0001 C CNN
	1    12350 8550
	1    0    0    -1  
$EndComp
$Comp
L Device:C C34
U 1 1 5EB93EDC
P 12350 8250
F 0 "C34" H 12450 8300 50  0000 L CNN
F 1 "0.1uF" H 12450 8200 50  0000 L CNN
F 2 "" H 12388 8100 50  0001 C CNN
F 3 "~" H 12350 8250 50  0001 C CNN
	1    12350 8250
	1    0    0    -1  
$EndComp
Wire Wire Line
	12150 8200 12150 8550
Wire Wire Line
	12150 8550 12350 8550
Wire Wire Line
	12150 8100 12350 8100
Connection ~ 12350 8100
Wire Wire Line
	12350 8100 12550 8100
$Comp
L power:+5V #PWR?
U 1 1 5EBDD9F1
P 12550 8100
F 0 "#PWR?" H 12550 7950 50  0001 C CNN
F 1 "+5V" V 12565 8228 50  0000 L CNN
F 2 "" H 12550 8100 50  0001 C CNN
F 3 "" H 12550 8100 50  0001 C CNN
	1    12550 8100
	0    1    1    0   
$EndComp
Wire Wire Line
	12350 8400 12350 8550
Connection ~ 12350 8550
$Comp
L Regulator_Linear:LD1117S12TR_SOT223 U?
U 1 1 5E2EAB70
P 1700 3300
F 0 "U?" H 1700 3542 50  0000 C CNN
F 1 "LD1117S12TR_SOT223" H 1700 3451 50  0000 C CNN
F 2 "Package_TO_SOT_SMD:SOT-223-3_TabPin2" H 1700 3500 50  0001 C CNN
F 3 "http://www.st.com/st-web-ui/static/active/en/resource/technical/document/datasheet/CD00000544.pdf" H 1800 3050 50  0001 C CNN
	1    1700 3300
	1    0    0    -1  
$EndComp
$Comp
L power:+3V3 #PWR?
U 1 1 5E2ECBAD
P 950 3300
F 0 "#PWR?" H 950 3150 50  0001 C CNN
F 1 "+3V3" V 965 3428 50  0000 L CNN
F 2 "" H 950 3300 50  0001 C CNN
F 3 "" H 950 3300 50  0001 C CNN
	1    950  3300
	0    -1   -1   0   
$EndComp
$EndSCHEMATC
